%YAML 1.1
%TAG !u! tag:unity3d.com,2011:
--- !u!114 &11400000
MonoBehaviour:
  m_ObjectHideFlags: 0
  m_CorrespondingSourceObject: {fileID: 0}
  m_PrefabInstance: {fileID: 0}
  m_PrefabAsset: {fileID: 0}
  m_GameObject: {fileID: 0}
  m_Enabled: 1
  m_EditorHideFlags: 0
  m_Script: {fileID: 11500000, guid: 670746d7ea3a3924b9f8012d4e34b858, type: 3}
  m_Name: Level5
  m_EditorClassIdentifier: 
  number: 5
  barriers:
  - {x: -1.7, y: 3.5, z: 0}
  - {x: 0, y: 3.5, z: 0}
  startPosShayba: {x: 0, y: -3.8, z: 0}
  posGate: {x: -0.8, y: 4.5, z: 0}
